{
    "exec-opts": ["native.cgroupdriver=systemd"],
    "registry-mirrors": ["http://192.168.1.30:5000", "http://registry:5000", "https://hub-mirror.c.163.com"],
    "insecure-registries":["192.168.1.30:5000", "registry:5000"]
}
